^C:\WorkspaceStore\workspace-container-wp8\workspace-datastoreWP81\SQLiteWinRT81\SQLiteWinRT81.vcxproj
C:\WorkspaceStore\workspace-container-wp8\WorkspaceSurface\ARM\Debug\SQLiteWinRT81\SQLiteWinRT.winmd
C:\WorkspaceStore\workspace-container-wp8\WorkspaceSurface\ARM\Debug\SQLiteWinRT81\SQLiteWinRT.lib
C:\WorkspaceStore\workspace-container-wp8\WorkspaceSurface\ARM\Debug\SQLiteWinRT81\SQLiteWinRT.exp
^C:\WorkspaceStore\workspace-container-wp8\workspace-datastoreWP81\SQLiteWinRT81\SQLiteWinRT81.vcxproj
C:\WorkspaceStore\workspace-container-wp8\workspace-datastoreWP81\SQLiteWinRT81\ARM\Debug\priconfig.xml
C:\WorkspaceStore\workspace-container-wp8\workspace-datastoreWP81\SQLiteWinRT81\ARM\Debug\priconfig.xml.intermediate
C:\WorkspaceStore\workspace-container-wp8\workspace-datastoreWP81\SQLiteWinRT81\ARM\Debug\layout.resfiles
C:\WorkspaceStore\workspace-container-wp8\workspace-datastoreWP81\SQLiteWinRT81\ARM\Debug\layout.resfiles.intermediate
C:\WorkspaceStore\workspace-container-wp8\workspace-datastoreWP81\SQLiteWinRT81\ARM\Debug\resources.resfiles
C:\WorkspaceStore\workspace-container-wp8\workspace-datastoreWP81\SQLiteWinRT81\ARM\Debug\resources.resfiles.intermediate
C:\WorkspaceStore\workspace-container-wp8\workspace-datastoreWP81\SQLiteWinRT81\ARM\Debug\pri.resfiles
C:\WorkspaceStore\workspace-container-wp8\workspace-datastoreWP81\SQLiteWinRT81\ARM\Debug\pri.resfiles.intermediate
C:\WorkspaceStore\workspace-container-wp8\WorkspaceSurface\ARM\Debug\SQLiteWinRT81\SQLiteWinRT.pri
C:\WorkspaceStore\workspace-container-wp8\workspace-datastoreWP81\SQLiteWinRT81\ARM\Debug\qualifiers.txt
C:\WorkspaceStore\workspace-container-wp8\workspace-datastoreWP81\SQLiteWinRT81\ARM\Debug\qualifiers.txt.intermediate
C:\WorkspaceStore\workspace-container-wp8\workspace-datastoreWP81\SQLiteWinRT81\ARM\Debug\MultipleQualifiersPerDimensionFound.txt
