^C:\WorkspaceStore\workspace-container-wp8\workspace-datastoreWP81\SQLiteWinRT81\SQLiteWinRT81.vcxproj
C:\WorkspaceStore\workspace-container-wp8\workspace-datastoreWP81\SQLiteWinRT81\ARM\Debug\priconfig.xml
C:\WorkspaceStore\workspace-container-wp8\workspace-datastoreWP81\SQLiteWinRT81\ARM\Debug\layout.resfiles
C:\WorkspaceStore\workspace-container-wp8\workspace-datastoreWP81\SQLiteWinRT81\ARM\Debug\resources.resfiles
C:\WorkspaceStore\workspace-container-wp8\workspace-datastoreWP81\SQLiteWinRT81\ARM\Debug\pri.resfiles
