^C:\WORKSPACESTORE\WORKSPACE-CONTAINER-WP8\WORKSPACE-DATASTOREWP81\SQLITE\PCH.CPP
C:\PROGRAM FILES (X86)\MICROSOFT VISUAL STUDIO 12.0\VC\BIN\1033\CLUI.DLL
C:\WINDOWS\GLOBALIZATION\SORTING\SORTDEFAULT.NLS
C:\WINDOWS\SYSTEM32\TZRES.DLL
C:\WINDOWS\MICROSOFT.NET\FRAMEWORK\V2.0.50727\MSCORWKS.DLL
C:\WINDOWS\MICROSOFT.NET\FRAMEWORK\V4.0.30319\CLR.DLL
C:\PROGRAM FILES (X86)\MICROSOFT VISUAL STUDIO 12.0\VC\BIN\CL.EXE.CONFIG
C:\PROGRAM FILES (X86)\MICROSOFT SDKS\WINDOWSPHONEAPP\V8.1\EXTENSIONSDKS\MICROSOFT.VCLIBS\12.0\REFERENCES\COMMONCONFIGURATION\NEUTRAL\PLATFORM.WINMD
C:\PROGRAM FILES (X86)\WINDOWS PHONE KITS\8.1\REFERENCES\COMMONCONFIGURATION\NEUTRAL\WINDOWS.WINMD
C:\PROGRAM FILES (X86)\MICROSOFT VISUAL STUDIO 12.0\VC\INCLUDE\VCCORLIB.H
C:\WORKSPACESTORE\WORKSPACE-CONTAINER-WP8\WORKSPACE-DATASTOREWP81\SQLITE\PCH.H
C:\PROGRAM FILES (X86)\WINDOWS PHONE KITS\8.1\INCLUDE\WINDOWS.H
C:\PROGRAM FILES (X86)\WINDOWS PHONE KITS\8.1\INCLUDE\WINAPIFAMILY.H
C:\PROGRAM FILES (X86)\WINDOWS PHONE KITS\8.1\INCLUDE\SDKDDKVER.H
C:\PROGRAM FILES (X86)\MICROSOFT VISUAL STUDIO 12.0\VC\INCLUDE\EXCPT.H
C:\PROGRAM FILES (X86)\MICROSOFT VISUAL STUDIO 12.0\VC\INCLUDE\CRTDEFS.H
C:\PROGRAM FILES (X86)\MICROSOFT VISUAL STUDIO 12.0\VC\INCLUDE\SAL.H
C:\PROGRAM FILES (X86)\MICROSOFT VISUAL STUDIO 12.0\VC\INCLUDE\CONCURRENCYSAL.H
C:\PROGRAM FILES (X86)\MICROSOFT VISUAL STUDIO 12.0\VC\INCLUDE\VADEFS.H
C:\PROGRAM FILES (X86)\MICROSOFT VISUAL STUDIO 12.0\VC\INCLUDE\STDARG.H
C:\PROGRAM FILES (X86)\WINDOWS PHONE KITS\8.1\INCLUDE\WINDEF.H
C:\PROGRAM FILES (X86)\WINDOWS PHONE KITS\8.1\INCLUDE\MINWIN\MINWINDEF.H
C:\PROGRAM FILES (X86)\WINDOWS PHONE KITS\8.1\INCLUDE\SPECSTRINGS.H
C:\PROGRAM FILES (X86)\WINDOWS PHONE KITS\8.1\INCLUDE\SPECSTRINGS_STRICT.H
C:\PROGRAM FILES (X86)\WINDOWS PHONE KITS\8.1\INCLUDE\SPECSTRINGS_UNDEF.H
C:\PROGRAM FILES (X86)\WINDOWS PHONE KITS\8.1\INCLUDE\DRIVERSPECS.H
C:\PROGRAM FILES (X86)\WINDOWS PHONE KITS\8.1\INCLUDE\SDV_DRIVERSPECS.H
C:\PROGRAM FILES (X86)\WINDOWS PHONE KITS\8.1\INCLUDE\WINNT.H
C:\PROGRAM FILES (X86)\MICROSOFT VISUAL STUDIO 12.0\VC\INCLUDE\CTYPE.H
C:\PROGRAM FILES (X86)\WINDOWS PHONE KITS\8.1\INCLUDE\KERNELSPECS.H
C:\PROGRAM FILES (X86)\WINDOWS PHONE KITS\8.1\INCLUDE\BASETSD.H
C:\PROGRAM FILES (X86)\WINDOWS PHONE KITS\8.1\INCLUDE\GUIDDEF.H
C:\PROGRAM FILES (X86)\MICROSOFT VISUAL STUDIO 12.0\VC\INCLUDE\STRING.H
C:\PROGRAM FILES (X86)\WINDOWS PHONE KITS\8.1\INCLUDE\PSHPACK4.H
C:\PROGRAM FILES (X86)\WINDOWS PHONE KITS\8.1\INCLUDE\POPPACK.H
C:\PROGRAM FILES (X86)\WINDOWS PHONE KITS\8.1\INCLUDE\PSHPACK2.H
C:\PROGRAM FILES (X86)\WINDOWS PHONE KITS\8.1\INCLUDE\PSHPACK8.H
C:\PROGRAM FILES (X86)\WINDOWS PHONE KITS\8.1\INCLUDE\MINWIN\APISET.H
C:\PROGRAM FILES (X86)\WINDOWS PHONE KITS\8.1\INCLUDE\KTMTYPES.H
C:\PROGRAM FILES (X86)\WINDOWS PHONE KITS\8.1\INCLUDE\WINBASE.H
C:\PROGRAM FILES (X86)\WINDOWS PHONE KITS\8.1\INCLUDE\MINWIN\APISETCCONV.H
C:\PROGRAM FILES (X86)\WINDOWS PHONE KITS\8.1\INCLUDE\MINWIN\MINWINBASE.H
C:\PROGRAM FILES (X86)\WINDOWS PHONE KITS\8.1\INCLUDE\MINWIN\PROCESSENV.H
C:\PROGRAM FILES (X86)\WINDOWS PHONE KITS\8.1\INCLUDE\MINWIN\FILEAPI.H
C:\PROGRAM FILES (X86)\WINDOWS PHONE KITS\8.1\INCLUDE\MINWIN\DEBUGAPI.H
C:\PROGRAM FILES (X86)\WINDOWS PHONE KITS\8.1\INCLUDE\MINWIN\UTILAPISET.H
C:\PROGRAM FILES (X86)\WINDOWS PHONE KITS\8.1\INCLUDE\MINWIN\HANDLEAPI.H
C:\PROGRAM FILES (X86)\WINDOWS PHONE KITS\8.1\INCLUDE\MINWIN\ERRHANDLINGAPI.H
C:\PROGRAM FILES (X86)\WINDOWS PHONE KITS\8.1\INCLUDE\MINWIN\FIBERSAPI.H
C:\PROGRAM FILES (X86)\WINDOWS PHONE KITS\8.1\INCLUDE\MINWIN\NAMEDPIPEAPI.H
C:\PROGRAM FILES (X86)\WINDOWS PHONE KITS\8.1\INCLUDE\MINWIN\PROFILEAPI.H
C:\PROGRAM FILES (X86)\WINDOWS PHONE KITS\8.1\INCLUDE\MINWIN\HEAPAPI.H
C:\PROGRAM FILES (X86)\WINDOWS PHONE KITS\8.1\INCLUDE\MINWIN\IOAPISET.H
C:\PROGRAM FILES (X86)\WINDOWS PHONE KITS\8.1\INCLUDE\MINWIN\SYNCHAPI.H
C:\PROGRAM FILES (X86)\WINDOWS PHONE KITS\8.1\INCLUDE\MINWIN\INTERLOCKEDAPI.H
C:\PROGRAM FILES (X86)\WINDOWS PHONE KITS\8.1\INCLUDE\MINWIN\PROCESSTHREADSAPI.H
C:\PROGRAM FILES (X86)\WINDOWS PHONE KITS\8.1\INCLUDE\MINWIN\SYSINFOAPI.H
C:\PROGRAM FILES (X86)\WINDOWS PHONE KITS\8.1\INCLUDE\MINWIN\MEMORYAPI.H
C:\PROGRAM FILES (X86)\WINDOWS PHONE KITS\8.1\INCLUDE\MINWIN\THREADPOOLLEGACYAPISET.H
C:\PROGRAM FILES (X86)\WINDOWS PHONE KITS\8.1\INCLUDE\MINWIN\THREADPOOLAPISET.H
C:\PROGRAM FILES (X86)\WINDOWS PHONE KITS\8.1\INCLUDE\MINWIN\BEMAPISET.H
C:\PROGRAM FILES (X86)\WINDOWS PHONE KITS\8.1\INCLUDE\MINWIN\JOBAPI.H
C:\PROGRAM FILES (X86)\WINDOWS PHONE KITS\8.1\INCLUDE\MINWIN\WOW64APISET.H
C:\PROGRAM FILES (X86)\WINDOWS PHONE KITS\8.1\INCLUDE\MINWIN\LIBLOADERAPI.H
C:\PROGRAM FILES (X86)\WINDOWS PHONE KITS\8.1\INCLUDE\MINWIN\SECURITYBASEAPI.H
C:\PROGRAM FILES (X86)\WINDOWS PHONE KITS\8.1\INCLUDE\MINCORE\NAMESPACEAPI.H
C:\PROGRAM FILES (X86)\WINDOWS PHONE KITS\8.1\INCLUDE\MINCORE\SYSTEMTOPOLOGYAPI.H
C:\PROGRAM FILES (X86)\WINDOWS PHONE KITS\8.1\INCLUDE\MINCORE\PROCESSTOPOLOGYAPI.H
C:\PROGRAM FILES (X86)\WINDOWS PHONE KITS\8.1\INCLUDE\MINWIN\SECURITYAPPCONTAINER.H
C:\PROGRAM FILES (X86)\WINDOWS PHONE KITS\8.1\INCLUDE\MINWIN\REALTIMEAPISET.H
C:\PROGRAM FILES (X86)\WINDOWS PHONE KITS\8.1\INCLUDE\WINERROR.H
C:\PROGRAM FILES (X86)\WINDOWS PHONE KITS\8.1\INCLUDE\MINWIN\TIMEZONEAPI.H
C:\PROGRAM FILES (X86)\WINDOWS PHONE KITS\8.1\INCLUDE\WINGDI.H
C:\PROGRAM FILES (X86)\WINDOWS PHONE KITS\8.1\INCLUDE\PSHPACK1.H
C:\PROGRAM FILES (X86)\WINDOWS PHONE KITS\8.1\INCLUDE\WINUSER.H
C:\PROGRAM FILES (X86)\WINDOWS PHONE KITS\8.1\INCLUDE\TVOUT.H
C:\PROGRAM FILES (X86)\WINDOWS PHONE KITS\8.1\INCLUDE\WINNLS.H
C:\PROGRAM FILES (X86)\WINDOWS PHONE KITS\8.1\INCLUDE\MINWIN\DATETIMEAPI.H
C:\PROGRAM FILES (X86)\WINDOWS PHONE KITS\8.1\INCLUDE\MINWIN\STRINGAPISET.H
C:\PROGRAM FILES (X86)\WINDOWS PHONE KITS\8.1\INCLUDE\WINCON.H
C:\PROGRAM FILES (X86)\WINDOWS PHONE KITS\8.1\INCLUDE\MINWIN\CONSOLEAPI.H
C:\PROGRAM FILES (X86)\WINDOWS PHONE KITS\8.1\INCLUDE\WINVER.H
C:\PROGRAM FILES (X86)\WINDOWS PHONE KITS\8.1\INCLUDE\VERRSRC.H
C:\PROGRAM FILES (X86)\WINDOWS PHONE KITS\8.1\INCLUDE\WINSVC.H
C:\PROGRAM FILES (X86)\WINDOWS PHONE KITS\8.1\INCLUDE\MCX.H
C:\PROGRAM FILES (X86)\WINDOWS PHONE KITS\8.1\INCLUDE\IMM.H
C:\PROGRAM FILES (X86)\WINDOWS PHONE KITS\8.1\INCLUDE\IME_CMODES.H
C:\PROGRAM FILES (X86)\MICROSOFT VISUAL STUDIO 12.0\VC\INCLUDE\VECTOR
C:\PROGRAM FILES (X86)\MICROSOFT VISUAL STUDIO 12.0\VC\INCLUDE\XMEMORY
C:\PROGRAM FILES (X86)\MICROSOFT VISUAL STUDIO 12.0\VC\INCLUDE\XMEMORY0
C:\PROGRAM FILES (X86)\MICROSOFT VISUAL STUDIO 12.0\VC\INCLUDE\CSTDLIB
C:\PROGRAM FILES (X86)\MICROSOFT VISUAL STUDIO 12.0\VC\INCLUDE\YVALS.H
C:\PROGRAM FILES (X86)\MICROSOFT VISUAL STUDIO 12.0\VC\INCLUDE\XKEYCHECK.H
C:\PROGRAM FILES (X86)\MICROSOFT VISUAL STUDIO 12.0\VC\INCLUDE\USE_ANSI.H
C:\PROGRAM FILES (X86)\MICROSOFT VISUAL STUDIO 12.0\VC\INCLUDE\STDLIB.H
C:\PROGRAM FILES (X86)\MICROSOFT VISUAL STUDIO 12.0\VC\INCLUDE\LIMITS.H
C:\PROGRAM FILES (X86)\MICROSOFT VISUAL STUDIO 12.0\VC\INCLUDE\LIMITS
C:\PROGRAM FILES (X86)\MICROSOFT VISUAL STUDIO 12.0\VC\INCLUDE\YMATH.H
C:\PROGRAM FILES (X86)\MICROSOFT VISUAL STUDIO 12.0\VC\INCLUDE\CFLOAT
C:\PROGRAM FILES (X86)\MICROSOFT VISUAL STUDIO 12.0\VC\INCLUDE\FLOAT.H
C:\PROGRAM FILES (X86)\MICROSOFT VISUAL STUDIO 12.0\VC\INCLUDE\CRTWRN.H
C:\PROGRAM FILES (X86)\MICROSOFT VISUAL STUDIO 12.0\VC\INCLUDE\CLIMITS
C:\PROGRAM FILES (X86)\MICROSOFT VISUAL STUDIO 12.0\VC\INCLUDE\CMATH
C:\PROGRAM FILES (X86)\MICROSOFT VISUAL STUDIO 12.0\VC\INCLUDE\MATH.H
C:\PROGRAM FILES (X86)\MICROSOFT VISUAL STUDIO 12.0\VC\INCLUDE\XTGMATH.H
C:\PROGRAM FILES (X86)\MICROSOFT VISUAL STUDIO 12.0\VC\INCLUDE\XTR1COMMON
C:\PROGRAM FILES (X86)\MICROSOFT VISUAL STUDIO 12.0\VC\INCLUDE\CWCHAR
C:\PROGRAM FILES (X86)\MICROSOFT VISUAL STUDIO 12.0\VC\INCLUDE\WCHAR.H
C:\PROGRAM FILES (X86)\MICROSOFT VISUAL STUDIO 12.0\VC\INCLUDE\SWPRINTF.INL
C:\PROGRAM FILES (X86)\MICROSOFT VISUAL STUDIO 12.0\VC\INCLUDE\WTIME.INL
C:\PROGRAM FILES (X86)\MICROSOFT VISUAL STUDIO 12.0\VC\INCLUDE\XSTDDEF
C:\PROGRAM FILES (X86)\MICROSOFT VISUAL STUDIO 12.0\VC\INCLUDE\CSTDDEF
C:\PROGRAM FILES (X86)\MICROSOFT VISUAL STUDIO 12.0\VC\INCLUDE\STDDEF.H
C:\PROGRAM FILES (X86)\MICROSOFT VISUAL STUDIO 12.0\VC\INCLUDE\INITIALIZER_LIST
C:\PROGRAM FILES (X86)\MICROSOFT VISUAL STUDIO 12.0\VC\INCLUDE\NEW
C:\PROGRAM FILES (X86)\MICROSOFT VISUAL STUDIO 12.0\VC\INCLUDE\EXCEPTION
C:\PROGRAM FILES (X86)\MICROSOFT VISUAL STUDIO 12.0\VC\INCLUDE\EH.H
C:\PROGRAM FILES (X86)\MICROSOFT VISUAL STUDIO 12.0\VC\INCLUDE\MALLOC.H
C:\PROGRAM FILES (X86)\MICROSOFT VISUAL STUDIO 12.0\VC\INCLUDE\XUTILITY
C:\PROGRAM FILES (X86)\MICROSOFT VISUAL STUDIO 12.0\VC\INCLUDE\UTILITY
C:\PROGRAM FILES (X86)\MICROSOFT VISUAL STUDIO 12.0\VC\INCLUDE\IOSFWD
C:\PROGRAM FILES (X86)\MICROSOFT VISUAL STUDIO 12.0\VC\INCLUDE\CSTDIO
C:\PROGRAM FILES (X86)\MICROSOFT VISUAL STUDIO 12.0\VC\INCLUDE\STDIO.H
C:\PROGRAM FILES (X86)\MICROSOFT VISUAL STUDIO 12.0\VC\INCLUDE\CSTRING
C:\PROGRAM FILES (X86)\MICROSOFT VISUAL STUDIO 12.0\VC\INCLUDE\CRTDBG.H
C:\PROGRAM FILES (X86)\MICROSOFT VISUAL STUDIO 12.0\VC\INCLUDE\TYPE_TRAITS
C:\PROGRAM FILES (X86)\MICROSOFT VISUAL STUDIO 12.0\VC\INCLUDE\XREFWRAP
C:\PROGRAM FILES (X86)\MICROSOFT VISUAL STUDIO 12.0\VC\INCLUDE\XATOMIC0.H
C:\PROGRAM FILES (X86)\MICROSOFT VISUAL STUDIO 12.0\VC\INCLUDE\INTRIN.H
C:\PROGRAM FILES (X86)\MICROSOFT VISUAL STUDIO 12.0\VC\INCLUDE\SETJMP.H
C:\PROGRAM FILES (X86)\MICROSOFT VISUAL STUDIO 12.0\VC\INCLUDE\IMMINTRIN.H
C:\PROGRAM FILES (X86)\MICROSOFT VISUAL STUDIO 12.0\VC\INCLUDE\WMMINTRIN.H
C:\PROGRAM FILES (X86)\MICROSOFT VISUAL STUDIO 12.0\VC\INCLUDE\NMMINTRIN.H
C:\PROGRAM FILES (X86)\MICROSOFT VISUAL STUDIO 12.0\VC\INCLUDE\SMMINTRIN.H
C:\PROGRAM FILES (X86)\MICROSOFT VISUAL STUDIO 12.0\VC\INCLUDE\TMMINTRIN.H
C:\PROGRAM FILES (X86)\MICROSOFT VISUAL STUDIO 12.0\VC\INCLUDE\PMMINTRIN.H
C:\PROGRAM FILES (X86)\MICROSOFT VISUAL STUDIO 12.0\VC\INCLUDE\EMMINTRIN.H
C:\PROGRAM FILES (X86)\MICROSOFT VISUAL STUDIO 12.0\VC\INCLUDE\XMMINTRIN.H
C:\PROGRAM FILES (X86)\MICROSOFT VISUAL STUDIO 12.0\VC\INCLUDE\MMINTRIN.H
C:\PROGRAM FILES (X86)\MICROSOFT VISUAL STUDIO 12.0\VC\INCLUDE\AMMINTRIN.H
C:\PROGRAM FILES (X86)\MICROSOFT VISUAL STUDIO 12.0\VC\INCLUDE\MM3DNOW.H
C:\PROGRAM FILES (X86)\MICROSOFT VISUAL STUDIO 12.0\VC\INCLUDE\STDEXCEPT
C:\PROGRAM FILES (X86)\MICROSOFT VISUAL STUDIO 12.0\VC\INCLUDE\XSTRING
C:\PROGRAM FILES (X86)\MICROSOFT SDKS\WINDOWSPHONEAPP\V8.1\EXTENSIONSDKS\SQLCIPHER.WP81\3.3.0\DESIGNTIME\COMMONCONFIGURATION\NEUTRAL\SQLITE3.H
^C:\WORKSPACESTORE\WORKSPACE-CONTAINER-WP8\WORKSPACE-DATASTOREWP81\SQLITE\SQLITEWP.CPP
C:\PROGRAM FILES (X86)\MICROSOFT VISUAL STUDIO 12.0\VC\BIN\1033\CLUI.DLL
C:\WINDOWS\GLOBALIZATION\SORTING\SORTDEFAULT.NLS
C:\WINDOWS\SYSTEM32\TZRES.DLL
C:\WORKSPACESTORE\WORKSPACE-CONTAINER-WP8\WORKSPACE-DATASTOREWP81\SQLITE\DEBUG\PCH.PCH
C:\WINDOWS\MICROSOFT.NET\FRAMEWORK\V2.0.50727\MSCORWKS.DLL
C:\WINDOWS\MICROSOFT.NET\FRAMEWORK\V4.0.30319\CLR.DLL
C:\PROGRAM FILES (X86)\MICROSOFT VISUAL STUDIO 12.0\VC\BIN\CL.EXE.CONFIG
C:\PROGRAM FILES (X86)\MICROSOFT SDKS\WINDOWSPHONEAPP\V8.1\EXTENSIONSDKS\MICROSOFT.VCLIBS\12.0\REFERENCES\COMMONCONFIGURATION\NEUTRAL\PLATFORM.WINMD
C:\PROGRAM FILES (X86)\WINDOWS PHONE KITS\8.1\REFERENCES\COMMONCONFIGURATION\NEUTRAL\WINDOWS.WINMD
C:\WORKSPACESTORE\WORKSPACE-CONTAINER-WP8\WORKSPACE-DATASTOREWP81\SQLITE\DEBUG\PCH.OBJ
C:\WORKSPACESTORE\WORKSPACE-CONTAINER-WP8\WORKSPACE-DATASTOREWP81\SQLITE\SQLITEWP.H
