^C:\WORKSPACESTORE\WORKSPACE-CONTAINER-WP8\WORKSPACE-DATASTOREWP81\SQLITE\PCH.CPP
C:\WORKSPACESTORE\WORKSPACE-CONTAINER-WP8\WORKSPACE-DATASTOREWP81\SQLITE\DEBUG\PCH.PCH
C:\WORKSPACESTORE\WORKSPACE-CONTAINER-WP8\WORKSPACE-DATASTOREWP81\SQLITE\DEBUG\VC120.PDB
C:\WORKSPACESTORE\WORKSPACE-CONTAINER-WP8\WORKSPACE-DATASTOREWP81\SQLITE\DEBUG\VC120.IDB
C:\WORKSPACESTORE\WORKSPACE-CONTAINER-WP8\WORKSPACE-DATASTOREWP81\SQLITE\DEBUG\PCH.OBJ
^C:\WORKSPACESTORE\WORKSPACE-CONTAINER-WP8\WORKSPACE-DATASTOREWP81\SQLITE\SQLITEWP.CPP
C:\WORKSPACESTORE\WORKSPACE-CONTAINER-WP8\WORKSPACE-DATASTOREWP81\SQLITE\DEBUG\VC120.PDB
C:\WORKSPACESTORE\WORKSPACE-CONTAINER-WP8\WORKSPACE-DATASTOREWP81\SQLITE\DEBUG\VC120.IDB
C:\WORKSPACESTORE\WORKSPACE-CONTAINER-WP8\WORKSPACE-DATASTOREWP81\SQLITE\DEBUG\SQLITEWP.OBJ
