^C:\WorkspaceStore\workspace-container-wp8\workspace-datastoreWP81\Sqlite\Sqlite.vcxproj
C:\WorkspaceStore\workspace-container-wp8\WorkspaceSurface\Debug\Sqlite\Sqlite.winmd
C:\WorkspaceStore\workspace-container-wp8\WorkspaceSurface\Debug\Sqlite\Sqlite.lib
C:\WorkspaceStore\workspace-container-wp8\WorkspaceSurface\Debug\Sqlite\Sqlite.exp
^C:\WorkspaceStore\workspace-container-wp8\workspace-datastoreWP81\Sqlite\Sqlite.vcxproj
C:\WorkspaceStore\workspace-container-wp8\workspace-datastoreWP81\Sqlite\Debug\Sqlite.vcxprojResolveAssemblyReference.cache
C:\WorkspaceStore\workspace-container-wp8\workspace-datastoreWP81\Sqlite\Debug\priconfig.xml
C:\WorkspaceStore\workspace-container-wp8\workspace-datastoreWP81\Sqlite\Debug\priconfig.xml.intermediate
C:\WorkspaceStore\workspace-container-wp8\workspace-datastoreWP81\Sqlite\Debug\layout.resfiles
C:\WorkspaceStore\workspace-container-wp8\workspace-datastoreWP81\Sqlite\Debug\layout.resfiles.intermediate
C:\WorkspaceStore\workspace-container-wp8\workspace-datastoreWP81\Sqlite\Debug\resources.resfiles
C:\WorkspaceStore\workspace-container-wp8\workspace-datastoreWP81\Sqlite\Debug\resources.resfiles.intermediate
C:\WorkspaceStore\workspace-container-wp8\workspace-datastoreWP81\Sqlite\Debug\pri.resfiles
C:\WorkspaceStore\workspace-container-wp8\workspace-datastoreWP81\Sqlite\Debug\pri.resfiles.intermediate
C:\WorkspaceStore\workspace-container-wp8\WorkspaceSurface\Debug\Sqlite\Sqlite.pri
C:\WorkspaceStore\workspace-container-wp8\workspace-datastoreWP81\Sqlite\Debug\qualifiers.txt
C:\WorkspaceStore\workspace-container-wp8\workspace-datastoreWP81\Sqlite\Debug\qualifiers.txt.intermediate
C:\WorkspaceStore\workspace-container-wp8\workspace-datastoreWP81\Sqlite\Debug\MultipleQualifiersPerDimensionFound.txt
